Recipe Rating Analysis: Nutritional Values and Ingredients
…
# We notice that there are recipes with more than 30'000'000 calories which are clearly outliers. We must then discard those values in order to continue with a meaningful analysis. Otherwise from a visual point of view we could not extract any relevant information. If we take out these recipes, we still have roughly 30 recipes which have more than 7000 calories. For the purpose of this precise visualisation, we want to exclude them to have a better overview of the boxplot, but we don't consider those as outliers.

recipes_calories %>% 
  select(title, nutrition, n_value) %>% 
  arrange(desc(n_value)) 

#> # A tibble: 14,568 x 3
#>    title                                              nutri~1 n_value
#>    <chr>                                              <chr>     <dbl>
#>  1 "Pear-Cranberry Mincemeat Lattice Pie "            calori~  3.01e7
#>  2 "Deep-Dish Wild Blueberry Pie "                    calori~  3.00e7
#>  3 "Apricot, Cranberry and Walnut Pie "               calori~  1.31e7
#>  4 "Lamb Kfte with Tarator Sauce "                   calori~  4.52e6
#>  5 "Rice Pilaf with Lamb, Carrots, and Raisins "      calori~  4.16e6
#>  6 "Rice Pilaf with Lamb, Carrots, and Raisins "      calori~  4.16e6
#>  7 "Chocolate-Almond Pie "                            calori~  3.36e6
#>  8 "Caramelized Apple and Pear Pie "                  calori~  3.36e6
#>  9 "Merguez Lamb Patties with Golden Raisin Couscous~ calori~  5.45e4
#> 10 "Grilled Lamb Chops with Porcini Mustard "         calori~  2.41e4
#> # ... with 14,558 more rows, and abbreviated variable name
#> #   1: nutrition
…
# We notice that there are recipes with more than 50'000 grams of protein which are clearly outliers. We must then discard those values in order to continue with a meaningful analysis. Otherwise from a visual point of view we could not extract any relevant information. By checking on the epicurious website recipes  with protein values above 1000, we also verified that the amount of proteins was not justified. We came to that conclusion by evaluating the average values of protein per 100grams of each ingredient in the specific recipe.

recipes_protein %>% 
  select(title, nutrition, n_value) %>% 
  arrange(desc(n_value)) 

#> # A tibble: 14,568 x 3
#>    title                                              nutri~1 n_value
#>    <chr>                                              <chr>     <dbl>
#>  1 "Rice Pilaf with Lamb, Carrots, and Raisins "      protein  236489
#>  2 "Rice Pilaf with Lamb, Carrots, and Raisins "      protein  236489
#>  3 "Pear-Cranberry Mincemeat Lattice Pie "            protein  200968
#>  4 "Deep-Dish Wild Blueberry Pie "                    protein  200210
#>  5 "Lamb Kfte with Tarator Sauce "                   protein  166471
#>  6 "Apricot, Cranberry and Walnut Pie "               protein   87188
#>  7 "Chocolate-Almond Pie "                            protein   58334
#>  8 "Caramelized Apple and Pear Pie "                  protein   58324
#>  9 "Merguez Lamb Patties with Golden Raisin Couscous~ protein    2074
#> 10 "Manhattan Clam Chowder "                          protein    1625
#> # ... with 14,558 more rows, and abbreviated variable name
#> #   1: nutrition
…
# We notice that there are recipes with more than 100'000 milligrams of sodium which are clearly outliers. We must then discard those values in order to continue with a meaningful analysis. By conducting further research, we realize that sodium values above 30'000 are highly suspicious.

recipes_sodium %>% 
  select(title, nutrition, n_value) %>% 
  arrange(desc(n_value)) 

#> # A tibble: 14,568 x 3
#>    title                                           nutrition  n_value
#>    <chr>                                           <chr>        <dbl>
#>  1 "Pear-Cranberry Mincemeat Lattice Pie "         sodium    27675110
#>  2 "Deep-Dish Wild Blueberry Pie "                 sodium    27570999
#>  3 "Apricot, Cranberry and Walnut Pie "            sodium    12005810
#>  4 "Lamb Kfte with Tarator Sauce "                sodium     7540990
#>  5 "Chocolate-Almond Pie "                         sodium     3449512
#>  6 "Caramelized Apple and Pear Pie "               sodium     3449373
#>  7 "Rice Pilaf with Lamb, Carrots, and Raisins "   sodium     3134853
#>  8 "Rice Pilaf with Lamb, Carrots, and Raisins "   sodium     3134853
#>  9 "Whole Branzino Roasted in Salt "               sodium      132220
#> 10 "Red Snapper Baked in Salt with Romesco Sauce " sodium      132025
#> # ... with 14,558 more rows
…
# We notice that there are recipes with more than 44'000 grams of fat which are clearly outliers. We must then discard those values in order to continue with a meaningful analysis. By checking on the epicurious website recipes  with fat values above 1000, we also verified that the amount of proteins was not justified. We came to that conclusion by evaluating the average values of protein per 100grams of each ingredient in the specific recipe.

recipes_fat %>% 
  select(title, nutrition, n_value) %>% 
  arrange(desc(n_value)) 

#> # A tibble: 14,568 x 3
#>    title                                         nutrition n_value
#>    <chr>                                         <chr>       <dbl>
#>  1 "Pear-Cranberry Mincemeat Lattice Pie "       fat       1722763
#>  2 "Deep-Dish Wild Blueberry Pie "               fat       1716279
#>  3 "Apricot, Cranberry and Walnut Pie "          fat        747374
#>  4 "Rice Pilaf with Lamb, Carrots, and Raisins " fat        221495
#>  5 "Rice Pilaf with Lamb, Carrots, and Raisins " fat        221495
#>  6 "Chocolate-Almond Pie "                       fat        186660
#>  7 "Caramelized Apple and Pear Pie "             fat        186642
#>  8 "Lamb Kfte with Tarator Sauce "              fat         44198
#>  9 "Grilled Lamb Chops with Porcini Mustard "    fat          2228
#> 10 "Grilled Lamb Chops with Porcini Mustard "    fat          2228
#> # ... with 14,558 more rows
…
